module xorm.io/xorm

go 1.13

require (
	github.com/denisenkom/go-mssqldb v0.9.0
	github.com/go-sql-driver/mysql v1.5.0
	github.com/json-iterator/go v1.1.11
	github.com/lib/pq v1.7.0
	github.com/mattn/go-sqlite3 v1.14.6
	github.com/goccy/go-json v0.7.4
	github.com/shopspring/decimal v1.2.0
	github.com/stretchr/testify v1.4.0
	github.com/syndtr/goleveldb v1.0.0
	github.com/ziutek/mymysql v1.5.4
	modernc.org/sqlite v1.10.1-0.20210314190707-798bbeb9bb84
	xorm.io/builder v0.3.8
)
